<?xml version="1.0" encoding="UTF-8" standalone="no"?>
<!-- Created with Inkscape (http://www.inkscape.org/) -->

<svg
   xmlns:dc="http://purl.org/dc/elements/1.1/"
   xmlns:cc="http://creativecommons.org/ns#"
   xmlns:rdf="http://www.w3.org/1999/02/22-rdf-syntax-ns#"
   xmlns:svg="http://www.w3.org/2000/svg"
   xmlns="http://www.w3.org/2000/svg"
   xmlns:xlink="http://www.w3.org/1999/xlink"
   xmlns:sodipodi="http://sodipodi.sourceforge.net/DTD/sodipodi-0.dtd"
   xmlns:inkscape="http://www.inkscape.org/namespaces/inkscape"
   id="svg8"
   version="1.1"
   viewBox="0 0 67.733333 67.733335"
   height="256"
   width="256"
   inkscape:version="0.92.1 r"
   sodipodi:docname="pascalhexagon-inkscape.svg"
   inkscape:export-filename="/home/edju/Documents/Code/pascal/pascalhexagon/data/pascalhexagon.png"
   inkscape:export-xdpi="96"
   inkscape:export-ydpi="96">
  <sodipodi:namedview
     inkscape:window-maximized="1"
     inkscape:window-y="27"
     inkscape:window-x="0"
     inkscape:window-height="1019"
     inkscape:window-width="1920"
     inkscape:guide-bbox="true"
     showguides="false"
     inkscape:snap-to-guides="true"
     inkscape:snap-grids="false"
     units="px"
     showgrid="false"
     inkscape:current-layer="text4623-93-6"
     inkscape:document-units="px"
     inkscape:cy="105.01615"
     inkscape:cx="166.84432"
     inkscape:zoom="1.0000001"
     inkscape:pageshadow="2"
     inkscape:pageopacity="0.0"
     borderopacity="1.0"
     bordercolor="#666666"
     pagecolor="#ffffff"
     id="base">
    <inkscape:grid
       snapvisiblegridlinesonly="true"
       dotted="false"
       empspacing="4"
       originy="-1.6890424e-16"
       units="px"
       id="grid4485"
       type="xygrid" />
  </sodipodi:namedview>
  <defs
     id="defs2">
    <linearGradient
       inkscape:collect="always"
       id="linearGradient851">
      <stop
         style="stop-color:#80b3ff;stop-opacity:1"
         offset="0"
         id="stop847" />
      <stop
         style="stop-color:#2734b9;stop-opacity:1"
         offset="1"
         id="stop849" />
    </linearGradient>
    <inkscape:perspective
       id="perspective4522"
       inkscape:persp3d-origin="33.866667 : 22.577778 : 1"
       inkscape:vp_z="55.405387 : 3.0938534 : 1"
       inkscape:vp_y="0 : 1000 : 0"
       inkscape:vp_x="-7.2461975 : 42.336249 : 1"
       sodipodi:type="inkscape:persp3d" />
    <linearGradient
       inkscape:collect="always"
       xlink:href="#linearGradient851"
       id="linearGradient855"
       gradientUnits="userSpaceOnUse"
       x1="34.431664"
       y1="262.75912"
       x2="65.574471"
       y2="295.03192" />
  </defs>
  <metadata
     id="metadata5">
    <rdf:RDF>
      <cc:Work
         rdf:about="">
        <dc:format>image/svg+xml</dc:format>
        <dc:type
           rdf:resource="http://purl.org/dc/dcmitype/StillImage" />
        <dc:title />
      </cc:Work>
    </rdf:RDF>
  </metadata>
  <g
     transform="translate(0,-229.26663)"
     id="layer1"
     inkscape:groupmode="layer"
     inkscape:label="Background"
     style="display:inline">
    <ellipse
       ry="31.750004"
       rx="31.749998"
       cy="263.1333"
       cx="33.866665"
       id="path4487"
       style="display:inline;opacity:1;fill:#80b3ff;fill-opacity:1;stroke:none;stroke-width:0.25;stroke-linecap:butt;stroke-linejoin:round;stroke-miterlimit:4;stroke-dasharray:none;stroke-opacity:1"
       inkscape:label="Fill" />
    <g
       id="g4979"
       style="display:inline;fill:#0000aa"
       inkscape:label="HexagonGroup">
      <path
         sodipodi:nodetypes="cccccccccccccc"
         inkscape:connector-curvature="0"
         id="path4489"
         d="m 26.914453,245.45989 -9.240625,9.7198 6.40625,14.59179 h 19.480469 l 6.345703,-14.47265 -9.186067,-9.72982 z m 0.423958,0.62866 12.850782,0.14021 8.568229,9.11368 -6.086719,13.04166 -17.700781,-0.0661 -6.079167,-13.08879 z"
         style="color:#000000;font-style:normal;font-variant:normal;font-weight:normal;font-stretch:normal;font-size:medium;line-height:normal;font-family:sans-serif;font-variant-ligatures:normal;font-variant-position:normal;font-variant-caps:normal;font-variant-numeric:normal;font-variant-alternates:normal;font-feature-settings:normal;text-indent:0;text-align:start;text-decoration:none;text-decoration-line:none;text-decoration-style:solid;text-decoration-color:#000000;letter-spacing:normal;word-spacing:normal;text-transform:none;writing-mode:lr-tb;direction:ltr;text-orientation:mixed;dominant-baseline:auto;baseline-shift:baseline;text-anchor:start;white-space:normal;shape-padding:0;clip-rule:nonzero;display:inline;overflow:visible;visibility:visible;opacity:1;isolation:auto;mix-blend-mode:normal;color-interpolation:sRGB;color-interpolation-filters:linearRGB;solid-color:#000000;solid-opacity:1;vector-effect:none;fill:#0000aa;fill-opacity:1;fill-rule:nonzero;stroke:none;stroke-width:1.0583334;stroke-linecap:butt;stroke-linejoin:miter;stroke-miterlimit:4;stroke-dasharray:none;stroke-dashoffset:0;stroke-opacity:1;color-rendering:auto;image-rendering:auto;shape-rendering:auto;text-rendering:auto;enable-background:accumulate"
         inkscape:label="Center" />
      <path
         style="opacity:1;fill:#0000aa;fill-opacity:1;stroke:none;stroke-width:0.25;stroke-linecap:butt;stroke-linejoin:round;stroke-miterlimit:4;stroke-dasharray:none;stroke-opacity:1"
         inkscape:transform-center-x="-0.078500884"
         inkscape:transform-center-y="-8.7469629"
         d="m 22.86986,271.16421 h 10.953061 10.953061 l 10.507166,15.13205 c -11.881875,10.94138 -30.829732,10.97575 -42.6983,0.0116"
         id="path4491"
         inkscape:connector-curvature="0"
         sodipodi:nodetypes="ccccc"
         inkscape:label="Slice3" />
      <path
         style="opacity:1;fill:#0000aa;fill-opacity:1;stroke:none;stroke-width:0.25;stroke-linecap:butt;stroke-linejoin:round;stroke-miterlimit:4;stroke-dasharray:none;stroke-opacity:1"
         inkscape:transform-center-x="-7.7474462"
         inkscape:transform-center-y="2.7357439"
         d="m 26.42041,244.61162 -10.252468,10.73173 -12.897622,0.0526 c 1.6623824,-7.81525 9.155132,-17.21561 16.5524,-20.32436"
         id="path4491-3"
         inkscape:connector-curvature="0"
         sodipodi:nodetypes="cccc"
         inkscape:label="Slice2" />
      <path
         style="opacity:1;fill:#0000aa;fill-opacity:1;stroke:none;stroke-width:0.25;stroke-linecap:butt;stroke-linejoin:round;stroke-miterlimit:4;stroke-dasharray:none;stroke-opacity:1"
         inkscape:transform-center-x="7.8175675"
         inkscape:transform-center-y="2.5993215"
         d="m 63.418036,255.36419 -11.967901,-0.0196 -10.331844,-10.73207 6.29592,-9.80864 c 7.383953,2.84005 15.021183,11.94772 17.078113,20.56038"
         id="path4491-6"
         inkscape:connector-curvature="0"
         sodipodi:nodetypes="ccccc"
         inkscape:label="Slice1" />
    </g>
    <ellipse
       ry="31.282284"
       rx="31.282276"
       cy="263.1333"
       cx="33.866669"
       id="path4487-2"
       style="display:inline;opacity:1;fill:none;fill-opacity:1;stroke:url(#linearGradient855);stroke-width:1.59940624;stroke-linecap:butt;stroke-linejoin:round;stroke-miterlimit:4;stroke-dasharray:none;stroke-opacity:1"
       inkscape:label="Border" />
  </g>
  <g
     inkscape:groupmode="layer"
     id="layer2"
     inkscape:label="TextLayer"
     style="display:inline">
    <g
       id="g5039"
       transform="matrix(0.96892259,0,0,0.96892259,1.0402495,0.95430913)"
       style="display:inline;stroke-width:1.03207421"
       inkscape:label="TextGroup">
      <g
         style="display:inline;opacity:1;fill:#000000;stroke-width:1.03207421"
         id="g4965"
         inkscape:label="BlackGroup">
        <path
           inkscape:connector-curvature="0"
           id="path83"
           style="font-style:normal;font-variant:normal;font-weight:normal;font-stretch:normal;font-size:medium;line-height:125%;font-family:'Bump IT UP';-inkscape-font-specification:'Bump IT UP';letter-spacing:0px;word-spacing:0px;fill:#000000;fill-opacity:1;stroke:none;stroke-width:0.27306962px;stroke-linecap:butt;stroke-linejoin:miter;stroke-opacity:1"
           d="M 37.091785,21.602599 V 15.58503 H 25.056647 v 6.017569 z M 19.039078,33.637737 V 9.567461 h 24.070276 v 15.043923 q 0,1.269331 -0.893233,2.139057 -0.893233,0.869727 -2.115552,0.869727 H 25.056647 v 6.017569 z"
           inkscape:label="BlackP" />
        <path
           inkscape:connector-curvature="0"
           id="path79"
           style="font-style:normal;font-variant:normal;font-weight:normal;font-stretch:normal;font-size:medium;line-height:125%;font-family:'Bump IT UP';-inkscape-font-specification:'Bump IT UP';letter-spacing:0px;word-spacing:0px;fill:#000000;fill-opacity:1;stroke:none;stroke-width:0.27306968px;stroke-linecap:butt;stroke-linejoin:miter;stroke-opacity:1"
           d="M 11.20472,54.787834 V 30.717558 h 6.017569 v 9.026354 h 12.035138 v -9.026354 h 6.017569 V 54.787834 H 29.257427 V 45.761481 H 17.222289 v 9.026353 z"
           inkscape:label="BlackH" />
        <g
           aria-label="EXA
GON"
           style="font-style:normal;font-variant:normal;font-weight:normal;font-stretch:normal;font-size:7.16678619px;line-height:125%;font-family:'Bump IT UP';-inkscape-font-specification:'Bump IT UP';letter-spacing:0px;word-spacing:0px;fill:#000000;fill-opacity:1;stroke:none;stroke-width:0.27306965px;stroke-linecap:butt;stroke-linejoin:miter;stroke-opacity:1"
           id="text4623-93-6"
           inkscape:label="BlackEXAGON">
          <path
             d="m 37.154592,43.789406 q -0.377936,0 -0.636893,-0.258956 -0.258956,-0.265955 -0.258956,-0.636892 V 36.62262 h 7.166786 v 1.791696 H 38.05044 v 0.895848 h 5.375089 v 1.791697 H 38.05044 v 0.895848 h 5.375089 v 1.791697 z"
             style="font-style:normal;font-variant:normal;font-weight:normal;font-stretch:normal;font-family:'Bump IT UP';-inkscape-font-specification:'Bump IT UP';fill:#000000;fill-opacity:1;stroke-width:0.27306965px"
             id="path99"
             inkscape:connector-curvature="0"
             inkscape:label="BlackE" />
          <path
             d="m 44.153406,43.789406 v -2.687545 q 0,-0.370937 0.258956,-0.629893 0.265955,-0.265955 0.636892,-0.265955 -0.377936,0 -0.636892,-0.258956 -0.258956,-0.265955 -0.258956,-0.636893 V 36.62262 h 1.791697 v 2.687544 h 3.583393 V 36.62262 h 1.791696 v 2.687544 q 0,0.377936 -0.265955,0.636893 -0.265955,0.258956 -0.629893,0.258956 0.370937,0 0.629893,0.265955 0.265955,0.265955 0.265955,0.629893 v 2.687545 h -1.791696 v -2.687545 h -3.583393 v 2.687545 z"
             style="font-style:normal;font-variant:normal;font-weight:normal;font-stretch:normal;font-family:'Bump IT UP';-inkscape-font-specification:'Bump IT UP';fill:#000000;fill-opacity:1;stroke-width:0.27306965px"
             id="path101"
             inkscape:connector-curvature="0"
             inkscape:label="BlackX" />
          <path
             d="m 57.423159,40.206013 v -1.791697 h -3.583393 v 1.791697 z m -5.37509,3.583393 v -6.270938 q 0,-0.370937 0.258956,-0.629893 0.265955,-0.265955 0.636892,-0.265955 h 6.270938 v 7.166786 h -1.791696 v -1.791697 h -3.583393 v 1.791697 z"
             style="font-style:normal;font-variant:normal;font-weight:normal;font-stretch:normal;font-family:'Bump IT UP';-inkscape-font-specification:'Bump IT UP';fill:#000000;fill-opacity:1;stroke-width:0.27306965px"
             id="path103"
             inkscape:connector-curvature="0"
             inkscape:label="BlackA3" />
          <path
             d="m 36.258743,52.747889 v -7.166787 h 7.166786 v 1.791697 H 38.05044 v 3.583393 h 3.583393 v -2.687545 h 1.791696 v 3.583393 q 0,0.377936 -0.265954,0.636892 -0.265955,0.258957 -0.629894,0.258957 z"
             style="font-style:normal;font-variant:normal;font-weight:normal;font-stretch:normal;font-family:'Bump IT UP';-inkscape-font-specification:'Bump IT UP';fill:#000000;fill-opacity:1;stroke-width:0.27306965px"
             id="path105"
             inkscape:connector-curvature="0"
             inkscape:label="BlackG" />
          <path
             d="m 49.528496,50.956192 v -3.583393 h -3.583393 v 3.583393 z m -5.37509,1.791697 v -6.270938 q 0,-0.370938 0.258956,-0.629894 0.265955,-0.265955 0.636892,-0.265955 h 6.270938 v 6.270938 q 0,0.377936 -0.265955,0.636892 -0.265955,0.258957 -0.629893,0.258957 z"
             style="font-style:normal;font-variant:normal;font-weight:normal;font-stretch:normal;font-family:'Bump IT UP';-inkscape-font-specification:'Bump IT UP';fill:#000000;fill-opacity:1;stroke-width:0.27306965px"
             id="path107"
             inkscape:connector-curvature="0"
             inkscape:label="BlackO" />
          <path
             d="m 52.048069,52.747889 v -7.166787 h 6.270938 q 0.370937,0 0.629893,0.265955 0.265955,0.265955 0.265955,0.629894 v 6.270938 h -1.791696 v -5.37509 h -3.583393 v 5.37509 z"
             style="font-style:normal;font-variant:normal;font-weight:normal;font-stretch:normal;font-family:'Bump IT UP';-inkscape-font-specification:'Bump IT UP';fill:#000000;fill-opacity:1;stroke-width:0.27306965px"
             id="path109"
             inkscape:connector-curvature="0"
             inkscape:label="BlackN" />
        </g>
        <g
           aria-label="AS"
           style="font-style:normal;font-variant:normal;font-weight:normal;font-stretch:normal;font-size:7.16678619px;line-height:125%;font-family:'Bump IT UP';-inkscape-font-specification:'Bump IT UP';letter-spacing:0px;word-spacing:0px;fill:#000000;fill-opacity:1;stroke:none;stroke-width:0.27306965px;stroke-linecap:butt;stroke-linejoin:miter;stroke-opacity:1"
           id="text4623-93"
           inkscape:label="BlackAS">
          <path
             d="m 49.52722,21.941084 v -1.791697 h -3.583393 v 1.791697 z m -5.37509,3.583393 v -6.270938 q 0,-0.370937 0.258956,-0.629893 0.265955,-0.265955 0.636892,-0.265955 h 6.270938 v 7.166786 H 49.52722 V 23.73278 h -3.583393 v 1.791697 z"
             style="font-style:normal;font-variant:normal;font-weight:normal;font-stretch:normal;font-family:'Bump IT UP';-inkscape-font-specification:'Bump IT UP';fill:#000000;fill-opacity:1;stroke-width:0.27306965px"
             id="path87"
             inkscape:connector-curvature="0"
             inkscape:label="BlackA1" />
          <path
             d="M 52.046793,25.524477 V 23.73278 h 5.37509 v -0.895848 h -5.37509 v -3.583393 q 0,-0.370937 0.258956,-0.629893 0.265955,-0.265955 0.636892,-0.265955 h 6.270938 v 1.791696 H 53.83849 v 0.895849 h 5.375089 v 3.583393 q 0,0.377936 -0.265955,0.636892 -0.265955,0.258956 -0.629893,0.258956 z"
             style="font-style:normal;font-variant:normal;font-weight:normal;font-stretch:normal;font-family:'Bump IT UP';-inkscape-font-specification:'Bump IT UP';fill:#000000;fill-opacity:1;stroke-width:0.27306965px"
             id="path89"
             inkscape:connector-curvature="0"
             inkscape:label="BlackS" />
        </g>
        <g
           aria-label="CAL"
           style="font-style:normal;font-variant:normal;font-weight:normal;font-stretch:normal;font-size:7.16678619px;line-height:125%;font-family:'Bump IT UP';-inkscape-font-specification:'Bump IT UP';letter-spacing:0px;word-spacing:0px;fill:#000000;fill-opacity:1;stroke:none;stroke-width:0.27306965px;stroke-linecap:butt;stroke-linejoin:miter;stroke-opacity:1"
           id="text4623-93-2"
           inkscape:label="BlackCAL">
          <path
             d="m 37.133229,34.319675 q -0.377936,0 -0.636892,-0.258956 -0.258956,-0.265955 -0.258956,-0.636892 v -6.270938 h 7.166786 v 1.791697 h -5.375089 v 3.583393 h 5.375089 v 1.791696 z"
             style="font-style:normal;font-variant:normal;font-weight:normal;font-stretch:normal;font-family:'Bump IT UP';-inkscape-font-specification:'Bump IT UP';fill:#000000;fill-opacity:1;stroke-width:0.27306965px"
             id="path92"
             inkscape:connector-curvature="0"
             inkscape:label="BlackC" />
          <path
             d="M 49.507133,30.736282 V 28.944586 H 45.92374 v 1.791696 z m -5.375089,3.583393 v -6.270937 q 0,-0.370938 0.258956,-0.629894 0.265955,-0.265955 0.636892,-0.265955 h 6.270938 v 7.166786 H 49.507133 V 32.527979 H 45.92374 v 1.791696 z"
             style="font-style:normal;font-variant:normal;font-weight:normal;font-stretch:normal;font-family:'Bump IT UP';-inkscape-font-specification:'Bump IT UP';fill:#000000;fill-opacity:1;stroke-width:0.27306965px"
             id="path94"
             inkscape:connector-curvature="0"
             inkscape:label="BlackA2" />
          <path
             d="m 52.922555,34.319675 q -0.377936,0 -0.636892,-0.258956 -0.258956,-0.265955 -0.258956,-0.636892 v -6.270938 h 1.791696 v 5.37509 h 5.37509 v 1.791696 z"
             style="font-style:normal;font-variant:normal;font-weight:normal;font-stretch:normal;font-family:'Bump IT UP';-inkscape-font-specification:'Bump IT UP';fill:#000000;fill-opacity:1;stroke-width:0.27306965px"
             id="path96"
             inkscape:connector-curvature="0"
             inkscape:label="BlackL" />
        </g>
      </g>
      <g
         id="g4952"
         style="display:inline;stroke-width:1.03207421"
         inkscape:label="WhiteGroup">
        <path
           inkscape:connector-curvature="0"
           id="path46"
           style="font-style:normal;font-variant:normal;font-weight:normal;font-stretch:normal;font-size:medium;line-height:125%;font-family:'Bump IT UP';-inkscape-font-specification:'Bump IT UP';letter-spacing:0px;word-spacing:0px;fill:#ffffff;fill-opacity:1;stroke:none;stroke-width:0.27306962px;stroke-linecap:butt;stroke-linejoin:miter;stroke-opacity:1"
           d="M 33.617917,18.662281 V 12.644712 H 21.58278 v 6.017569 z M 15.565211,30.697418 V 6.6271439 H 39.635486 V 21.671065 q 0,1.269331 -0.893233,2.139058 -0.893233,0.869727 -2.115552,0.869727 H 21.58278 v 6.017568 z"
           inkscape:label="WhiteP" />
        <path
           inkscape:connector-curvature="0"
           id="path49"
           style="font-style:normal;font-variant:normal;font-weight:normal;font-stretch:normal;font-size:medium;line-height:125%;font-family:'Bump IT UP';-inkscape-font-specification:'Bump IT UP';letter-spacing:0px;word-spacing:0px;fill:#ffffff;fill-opacity:1;stroke:none;stroke-width:0.27306968px;stroke-linecap:butt;stroke-linejoin:miter;stroke-opacity:1"
           d="M 7.7308531,51.847511 V 27.777235 h 6.0175689 v 9.026354 H 25.78356 v -9.026354 h 6.017569 V 51.847511 H 25.78356 V 42.821158 H 13.748422 v 9.026353 z"
           inkscape:label="WhiteH" />
        <g
           aria-label="EXA
GON"
           style="font-style:normal;font-variant:normal;font-weight:normal;font-stretch:normal;font-size:7.16678572px;line-height:125%;font-family:'Bump IT UP';-inkscape-font-specification:'Bump IT UP';letter-spacing:0px;word-spacing:0px;fill:#ffffff;fill-opacity:1;stroke:none;stroke-width:0.27306965px;stroke-linecap:butt;stroke-linejoin:miter;stroke-opacity:1"
           id="text4623-7-0-8"
           inkscape:label="WhiteEXAGON">
          <path
             d="m 36.120271,42.91394 q -0.377936,0 -0.636892,-0.258956 -0.258957,-0.265955 -0.258957,-0.636892 v -6.270937 h 7.166786 v 1.791696 h -5.375089 v 0.895848 h 5.375089 v 1.791697 h -5.375089 v 0.895848 h 5.375089 v 1.791696 z"
             style="font-style:normal;font-variant:normal;font-weight:normal;font-stretch:normal;font-family:'Bump IT UP';-inkscape-font-specification:'Bump IT UP';fill:#ffffff;stroke-width:0.27306965px"
             id="path52"
             inkscape:connector-curvature="0"
             inkscape:label="WhiteE" />
          <path
             d="m 43.119085,42.91394 v -2.687544 q 0,-0.370937 0.258956,-0.629893 0.265955,-0.265955 0.636892,-0.265955 -0.377936,0 -0.636892,-0.258957 -0.258956,-0.265954 -0.258956,-0.636892 v -2.687544 h 1.791696 v 2.687544 h 3.583393 v -2.687544 h 1.791697 v 2.687544 q 0,0.377936 -0.265955,0.636892 -0.265955,0.258957 -0.629894,0.258957 0.370937,0 0.629894,0.265955 0.265955,0.265954 0.265955,0.629893 v 2.687544 h -1.791697 v -2.687544 h -3.583393 v 2.687544 z"
             style="font-style:normal;font-variant:normal;font-weight:normal;font-stretch:normal;font-family:'Bump IT UP';-inkscape-font-specification:'Bump IT UP';fill:#ffffff;stroke-width:0.27306965px"
             id="path54"
             inkscape:connector-curvature="0"
             inkscape:label="WhiteX" />
          <path
             d="m 56.388837,39.330548 v -1.791697 h -3.583393 v 1.791697 z m -5.37509,3.583392 v -6.270937 q 0,-0.370937 0.258956,-0.629893 0.265955,-0.265955 0.636892,-0.265955 h 6.270938 v 7.166785 h -1.791696 v -1.791696 h -3.583393 v 1.791696 z"
             style="font-style:normal;font-variant:normal;font-weight:normal;font-stretch:normal;font-family:'Bump IT UP';-inkscape-font-specification:'Bump IT UP';fill:#ffffff;stroke-width:0.27306965px"
             id="path56"
             inkscape:connector-curvature="0"
             inkscape:label="WhiteA3" />
          <path
             d="m 35.224422,51.872423 v -7.166786 h 7.166786 v 1.791696 h -5.375089 v 3.583393 h 3.583393 v -2.687544 h 1.791696 v 3.583392 q 0,0.377936 -0.265955,0.636892 -0.265955,0.258957 -0.629893,0.258957 z"
             style="font-style:normal;font-variant:normal;font-weight:normal;font-stretch:normal;font-family:'Bump IT UP';-inkscape-font-specification:'Bump IT UP';fill:#ffffff;stroke-width:0.27306965px"
             id="path58"
             inkscape:connector-curvature="0"
             inkscape:label="WhiteG" />
          <path
             d="m 48.494174,50.080726 v -3.583393 h -3.583393 v 3.583393 z m -5.375089,1.791697 v -6.270938 q 0,-0.370937 0.258956,-0.629893 0.265955,-0.265955 0.636892,-0.265955 h 6.270938 v 6.270937 q 0,0.377936 -0.265955,0.636892 -0.265955,0.258957 -0.629894,0.258957 z"
             style="font-style:normal;font-variant:normal;font-weight:normal;font-stretch:normal;font-family:'Bump IT UP';-inkscape-font-specification:'Bump IT UP';fill:#ffffff;stroke-width:0.27306965px"
             id="path60"
             inkscape:connector-curvature="0"
             inkscape:label="WhiteO" />
          <path
             d="m 51.013747,51.872423 v -7.166786 h 6.270938 q 0.370937,0 0.629893,0.265955 0.265955,0.265955 0.265955,0.629893 v 6.270938 h -1.791696 v -5.37509 h -3.583393 v 5.37509 z"
             style="font-style:normal;font-variant:normal;font-weight:normal;font-stretch:normal;font-family:'Bump IT UP';-inkscape-font-specification:'Bump IT UP';fill:#ffffff;stroke-width:0.27306965px"
             id="path62"
             inkscape:connector-curvature="0"
             inkscape:label="WhiteN" />
        </g>
        <g
           aria-label="AS"
           style="font-style:normal;font-variant:normal;font-weight:normal;font-stretch:normal;font-size:7.16678572px;line-height:125%;font-family:'Bump IT UP';-inkscape-font-specification:'Bump IT UP';letter-spacing:0px;word-spacing:0px;fill:#ffffff;fill-opacity:1;stroke:none;stroke-width:0.27306965px;stroke-linecap:butt;stroke-linejoin:miter;stroke-opacity:1"
           id="text4623-7-0"
           inkscape:label="WhiteAS">
          <path
             d="m 48.492895,21.065619 v -1.791697 h -3.583393 v 1.791697 z m -5.37509,3.583393 v -6.270938 q 0,-0.370937 0.258957,-0.629893 0.265955,-0.265955 0.636892,-0.265955 h 6.270937 v 7.166786 h -1.791696 v -1.791697 h -3.583393 v 1.791697 z"
             style="font-style:normal;font-variant:normal;font-weight:normal;font-stretch:normal;font-family:'Bump IT UP';-inkscape-font-specification:'Bump IT UP';fill:#ffffff;stroke-width:0.27306965px"
             id="path65"
             inkscape:connector-curvature="0"
             inkscape:label="WhiteA1" />
          <path
             d="m 51.012468,24.649012 v -1.791697 h 5.375089 v -0.895848 h -5.375089 v -3.583393 q 0,-0.370937 0.258956,-0.629893 0.265955,-0.265955 0.636892,-0.265955 h 6.270938 v 1.791696 h -5.37509 v 0.895849 h 5.37509 v 3.583392 q 0,0.377936 -0.265955,0.636892 -0.265955,0.258957 -0.629894,0.258957 z"
             style="font-style:normal;font-variant:normal;font-weight:normal;font-stretch:normal;font-family:'Bump IT UP';-inkscape-font-specification:'Bump IT UP';fill:#ffffff;stroke-width:0.27306965px"
             id="path67"
             inkscape:connector-curvature="0"
             inkscape:label="WhiteS" />
        </g>
        <g
           aria-label="CAL"
           style="font-style:normal;font-variant:normal;font-weight:normal;font-stretch:normal;font-size:7.16678572px;line-height:125%;font-family:'Bump IT UP';-inkscape-font-specification:'Bump IT UP';letter-spacing:0px;word-spacing:0px;display:inline;fill:#ffffff;fill-opacity:1;stroke:none;stroke-width:0.27306965px;stroke-linecap:butt;stroke-linejoin:miter;stroke-opacity:1"
           id="text4623-7-0-2"
           inkscape:label="WhiteCAL">
          <path
             d="m 36.098905,33.444214 q -0.377936,0 -0.636893,-0.258956 -0.258956,-0.265955 -0.258956,-0.636892 v -6.270938 h 7.166786 v 1.791697 h -5.375089 v 3.583392 h 5.375089 v 1.791697 z"
             style="font-style:normal;font-variant:normal;font-weight:normal;font-stretch:normal;font-family:'Bump IT UP';-inkscape-font-specification:'Bump IT UP';fill:#ffffff;stroke-width:0.27306965px"
             id="path70"
             inkscape:connector-curvature="0"
             inkscape:label="WhiteC" />
          <path
             d="m 48.472808,29.860821 v -1.791696 h -3.583393 v 1.791696 z m -5.375089,3.583393 v -6.270938 q 0,-0.370937 0.258956,-0.629893 0.265955,-0.265955 0.636892,-0.265955 h 6.270937 v 7.166786 h -1.791696 v -1.791697 h -3.583393 v 1.791697 z"
             style="font-style:normal;font-variant:normal;font-weight:normal;font-stretch:normal;font-family:'Bump IT UP';-inkscape-font-specification:'Bump IT UP';fill:#ffffff;stroke-width:0.27306965px"
             id="path72"
             inkscape:connector-curvature="0"
             inkscape:label="WhiteA2" />
          <path
             d="m 51.888229,33.444214 q -0.377936,0 -0.636892,-0.258956 -0.258956,-0.265955 -0.258956,-0.636892 v -6.270938 h 1.791697 v 5.375089 h 5.375089 v 1.791697 z"
             style="font-style:normal;font-variant:normal;font-weight:normal;font-stretch:normal;font-family:'Bump IT UP';-inkscape-font-specification:'Bump IT UP';fill:#ffffff;stroke-width:0.27306965px"
             id="path74"
             inkscape:connector-curvature="0"
             inkscape:label="WhiteL" />
        </g>
      </g>
    </g>
  </g>
</svg>
